PropertyStore;Config;Threads;avgTimeInNanos;avgTimeInSeconds
org.opalj.fpcf.seq.PKESequentialPropertyStore;default config;1;20566016;0.0206
org.opalj.fpcf.seq.EPKSequentialPropertyStore;default config;1;19991309;0.0200
org.opalj.fpcf.par.ReactiveAsyncPropertyStore;default config;1;35971816;0.0360
org.opalj.fpcf.par.ReactiveAsyncPropertyStore;default config;2;20936671;0.0209
org.opalj.fpcf.par.ReactiveAsyncPropertyStore;default config;3;16517887;0.0165
org.opalj.fpcf.par.ReactiveAsyncPropertyStore;default config;4;14335830;0.0143
org.opalj.fpcf.par.ReactiveAsyncPropertyStore;default config;5;16607560;0.0166
org.opalj.fpcf.par.ReactiveAsyncPropertyStore;default config;6;14353533;0.0144
org.opalj.fpcf.par.ReactiveAsyncPropertyStore;default config;7;13489296;0.0135
org.opalj.fpcf.par.ReactiveAsyncPropertyStore;default config;8;14285548;0.0143
org.opalj.fpcf.par.ReactiveAsyncPropertyStore;default config;9;16665314;0.0167